%YAML 1.1
%TAG !u! tag:unity3d.com,2011:
--- !u!29 &1
OcclusionCullingSettings:
  m_ObjectHideFlags: 0
  serializedVersion: 2
  m_OcclusionBakeSettings:
    smallestOccluder: 5
    smallestHole: 0.25
    backfaceThreshold: 100
  m_SceneGUID: 00000000000000000000000000000000
  m_OcclusionCullingData: {fileID: 0}
--- !u!104 &2
RenderSettings:
  m_ObjectHideFlags: 0
  serializedVersion: 9
  m_Fog: 0
  m_FogColor: {r: 0.5, g: 0.5, b: 0.5, a: 1}
  m_FogMode: 3
  m_FogDensity: 0.01
  m_LinearFogStart: 0
  m_LinearFogEnd: 300
  m_AmbientSkyColor: {r: 0.212, g: 0.227, b: 0.259, a: 1}
  m_AmbientEquatorColor: {r: 0.114, g: 0.125, b: 0.133, a: 1}
  m_AmbientGroundColor: {r: 0.047, g: 0.043, b: 0.035, a: 1}
  m_AmbientIntensity: 1
  m_AmbientMode: 0
  m_SubtractiveShadowColor: {r: 0.42, g: 0.478, b: 0.627, a: 1}
  m_SkyboxMaterial: {fileID: 10304, guid: 0000000000000000f000000000000000, type: 0}
  m_HaloStrength: 0.5
  m_FlareStrength: 1
  m_FlareFadeSpeed: 3
  m_HaloTexture: {fileID: 0}
  m_SpotCookie: {fileID: 10001, guid: 0000000000000000e000000000000000, type: 0}
  m_DefaultReflectionMode: 0
  m_DefaultReflectionResolution: 128
  m_ReflectionBounces: 1
  m_ReflectionIntensity: 1
  m_CustomReflection: {fileID: 0}
  m_Sun: {fileID: 0}
  m_IndirectSpecularColor: {r: 0.43850547, g: 0.4865992, b: 0.5668716, a: 1}
  m_UseRadianceAmbientProbe: 0
--- !u!157 &3
LightmapSettings:
  m_ObjectHideFlags: 0
  serializedVersion: 11
  m_GIWorkflowMode: 0
  m_GISettings:
    serializedVersion: 2
    m_BounceScale: 1
    m_IndirectOutputScale: 1
    m_AlbedoBoost: 1
    m_EnvironmentLightingMode: 0
    m_EnableBakedLightmaps: 1
    m_EnableRealtimeLightmaps: 1
  m_LightmapEditorSettings:
    serializedVersion: 12
    m_Resolution: 2
    m_BakeResolution: 40
    m_AtlasSize: 1024
    m_AO: 0
    m_AOMaxDistance: 1
    m_CompAOExponent: 1
    m_CompAOExponentDirect: 0
    m_ExtractAmbientOcclusion: 0
    m_Padding: 2
    m_LightmapParameters: {fileID: 0}
    m_LightmapsBakeMode: 1
    m_TextureCompression: 1
    m_FinalGather: 0
    m_FinalGatherFiltering: 1
    m_FinalGatherRayCount: 256
    m_ReflectionCompression: 2
    m_MixedBakeMode: 1
    m_BakeBackend: 0
    m_PVRSampling: 1
    m_PVRDirectSampleCount: 32
    m_PVRSampleCount: 512
    m_PVRBounces: 2
    m_PVREnvironmentSampleCount: 512
    m_PVREnvironmentReferencePointCount: 2048
    m_PVRFilteringMode: 0
    m_PVRDenoiserTypeDirect: 0
    m_PVRDenoiserTypeIndirect: 0
    m_PVRDenoiserTypeAO: 0
    m_PVRFilterTypeDirect: 0
    m_PVRFilterTypeIndirect: 0
    m_PVRFilterTypeAO: 0
    m_PVREnvironmentMIS: 0
    m_PVRCulling: 1
    m_PVRFilteringGaussRadiusDirect: 1
    m_PVRFilteringGaussRadiusIndirect: 5
    m_PVRFilteringGaussRadiusAO: 2
    m_PVRFilteringAtrousPositionSigmaDirect: 0.5
    m_PVRFilteringAtrousPositionSigmaIndirect: 2
    m_PVRFilteringAtrousPositionSigmaAO: 1
    m_ExportTrainingData: 0
    m_TrainingDataDestination: TrainingData
  m_LightingDataAsset: {fileID: 112000006, guid: 9b811bff38646904a97f1832a836d1ed,
    type: 2}
  m_UseShadowmask: 0
--- !u!196 &4
NavMeshSettings:
  serializedVersion: 2
  m_ObjectHideFlags: 0
  m_BuildSettings:
    serializedVersion: 2
    agentTypeID: 0
    agentRadius: 0.5
    agentHeight: 2
    agentSlope: 45
    agentClimb: 0.4
    ledgeDropHeight: 0
    maxJumpAcrossDistance: 0
    minRegionArea: 2
    manualCellSize: 0
    cellSize: 0.16666667
    manualTileSize: 0
    tileSize: 256
    accuratePlacement: 0
    debug:
      m_Flags: 0
  m_NavMeshData: {fileID: 0}
--- !u!1 &285276061
GameObject:
  m_ObjectHideFlags: 0
  m_CorrespondingSourceObject: {fileID: 0}
  m_PrefabInstance: {fileID: 0}
  m_PrefabAsset: {fileID: 0}
  serializedVersion: 6
  m_Component:
  - component: {fileID: 285276065}
  - component: {fileID: 285276064}
  - component: {fileID: 285276063}
  - component: {fileID: 285276062}
  m_Layer: 0
  m_Name: Plane
  m_TagString: Untagged
  m_Icon: {fileID: 0}
  m_NavMeshLayer: 0
  m_StaticEditorFlags: 0
  m_IsActive: 1
--- !u!64 &285276062
MeshCollider:
  m_ObjectHideFlags: 0
  m_CorrespondingSourceObject: {fileID: 0}
  m_PrefabInstance: {fileID: 0}
  m_PrefabAsset: {fileID: 0}
  m_GameObject: {fileID: 285276061}
  m_Material: {fileID: 0}
  m_IsTrigger: 0
  m_Enabled: 1
  serializedVersion: 3
  m_Convex: 0
  m_CookingOptions: 14
  m_Mesh: {fileID: 10209, guid: 0000000000000000e000000000000000, type: 0}
--- !u!23 &285276063
MeshRenderer:
  m_ObjectHideFlags: 0
  m_CorrespondingSourceObject: {fileID: 0}
  m_PrefabInstance: {fileID: 0}
  m_PrefabAsset: {fileID: 0}
  m_GameObject: {fileID: 285276061}
  m_Enabled: 1
  m_CastShadows: 1
  m_ReceiveShadows: 1
  m_DynamicOccludee: 1
  m_MotionVectors: 1
  m_LightProbeUsage: 1
  m_ReflectionProbeUsage: 1
  m_RenderingLayerMask: 1
  m_RendererPriority: 0
  m_Materials:
  - {fileID: 2100000, guid: b3d966249a579af4ea3cb7888619c368, type: 2}
  m_StaticBatchInfo:
    firstSubMesh: 0
    subMeshCount: 0
  m_StaticBatchRoot: {fileID: 0}
  m_ProbeAnchor: {fileID: 0}
  m_LightProbeVolumeOverride: {fileID: 0}
  m_ScaleInLightmap: 1
  m_ReceiveGI: 1
  m_PreserveUVs: 0
  m_IgnoreNormalsForChartDetection: 0
  m_ImportantGI: 0
  m_StitchLightmapSeams: 1
  m_SelectedEditorRenderState: 3
  m_MinimumChartSize: 4
  m_AutoUVMaxDistance: 0.5
  m_AutoUVMaxAngle: 89
  m_LightmapParameters: {fileID: 0}
  m_SortingLayerID: 0
  m_SortingLayer: 0
  m_SortingOrder: 0
--- !u!33 &285276064
MeshFilter:
  m_ObjectHideFlags: 0
  m_CorrespondingSourceObject: {fileID: 0}
  m_PrefabInstance: {fileID: 0}
  m_PrefabAsset: {fileID: 0}
  m_GameObject: {fileID: 285276061}
  m_Mesh: {fileID: 10209, guid: 0000000000000000e000000000000000, type: 0}
--- !u!4 &285276065
Transform:
  m_ObjectHideFlags: 0
  m_CorrespondingSourceObject: {fileID: 0}
  m_PrefabInstance: {fileID: 0}
  m_PrefabAsset: {fileID: 0}
  m_GameObject: {fileID: 285276061}
  m_LocalRotation: {x: 0, y: 0, z: 0, w: 1}
  m_LocalPosition: {x: -0.22000003, y: 0.36, z: 0.41}
  m_LocalScale: {x: 0.47391, y: 0.47391, z: 0.47391}
  m_Children: []
  m_Father: {fileID: 0}
  m_RootOrder: 2
  m_LocalEulerAnglesHint: {x: 0, y: 0, z: 0}
--- !u!1001 &604367341
PrefabInstance:
  m_ObjectHideFlags: 0
  serializedVersion: 2
  m_Modification:
    m_TransformParent: {fileID: 0}
    m_Modifications:
    - target: {fileID: 400004, guid: 82af4827fee368e4c83d72a25f533a4e, type: 3}
      propertyPath: m_LocalPosition.x
      value: 0
      objectReference: {fileID: 0}
    - target: {fileID: 400004, guid: 82af4827fee368e4c83d72a25f533a4e, type: 3}
      propertyPath: m_LocalPosition.y
      value: 0
      objectReference: {fileID: 0}
    - target: {fileID: 400004, guid: 82af4827fee368e4c83d72a25f533a4e, type: 3}
      propertyPath: m_LocalPosition.z
      value: 0
      objectReference: {fileID: 0}
    - target: {fileID: 400004, guid: 82af4827fee368e4c83d72a25f533a4e, type: 3}
      propertyPath: m_LocalRotation.x
      value: 0
      objectReference: {fileID: 0}
    - target: {fileID: 400004, guid: 82af4827fee368e4c83d72a25f533a4e, type: 3}
      propertyPath: m_LocalRotation.y
      value: 0
      objectReference: {fileID: 0}
    - target: {fileID: 400004, guid: 82af4827fee368e4c83d72a25f533a4e, type: 3}
      propertyPath: m_LocalRotation.z
      value: 0
      objectReference: {fileID: 0}
    - target: {fileID: 400004, guid: 82af4827fee368e4c83d72a25f533a4e, type: 3}
      propertyPath: m_LocalRotation.w
      value: 1
      objectReference: {fileID: 0}
    - target: {fileID: 400004, guid: 82af4827fee368e4c83d72a25f533a4e, type: 3}
      propertyPath: m_RootOrder
      value: 0
      objectReference: {fileID: 0}
    - target: {fileID: 400006, guid: 82af4827fee368e4c83d72a25f533a4e, type: 3}
      propertyPath: m_RootOrder
      value: 1
      objectReference: {fileID: 0}
    - target: {fileID: 431536, guid: 82af4827fee368e4c83d72a25f533a4e, type: 3}
      propertyPath: m_RootOrder
      value: 2
      objectReference: {fileID: 0}
    - target: {fileID: 4000010075728302, guid: 82af4827fee368e4c83d72a25f533a4e, type: 3}
      propertyPath: m_LocalRotation.x
      value: 0.50103897
      objectReference: {fileID: 0}
    - target: {fileID: 4000010075728302, guid: 82af4827fee368e4c83d72a25f533a4e, type: 3}
      propertyPath: m_LocalRotation.y
      value: 0.5026041
      objectReference: {fileID: 0}
    - target: {fileID: 4000010075728302, guid: 82af4827fee368e4c83d72a25f533a4e, type: 3}
      propertyPath: m_LocalRotation.z
      value: -0.35156763
      objectReference: {fileID: 0}
    - target: {fileID: 4000010075728302, guid: 82af4827fee368e4c83d72a25f533a4e, type: 3}
      propertyPath: m_LocalRotation.w
      value: 0.6105319
      objectReference: {fileID: 0}
    - target: {fileID: 4000010075728302, guid: 82af4827fee368e4c83d72a25f533a4e, type: 3}
      propertyPath: m_LocalEulerAnglesHint.x
      value: 74.84
      objectReference: {fileID: 0}
    - target: {fileID: 4000010075728302, guid: 82af4827fee368e4c83d72a25f533a4e, type: 3}
      propertyPath: m_LocalEulerAnglesHint.y
      value: 91.6
      objectReference: {fileID: 0}
    - target: {fileID: 4000010075728302, guid: 82af4827fee368e4c83d72a25f533a4e, type: 3}
      propertyPath: m_LocalEulerAnglesHint.z
      value: 16.52
      objectReference: {fileID: 0}
    - target: {fileID: 4000010075728302, guid: 82af4827fee368e4c83d72a25f533a4e, type: 3}
      propertyPath: m_RootOrder
      value: 0
      objectReference: {fileID: 0}
    - target: {fileID: 4000011252882896, guid: 82af4827fee368e4c83d72a25f533a4e, type: 3}
      propertyPath: m_RootOrder
      value: 3
      objectReference: {fileID: 0}
    - target: {fileID: 4000011252882896, guid: 82af4827fee368e4c83d72a25f533a4e, type: 3}
      propertyPath: m_LocalRotation.x
      value: -0.04205141
      objectReference: {fileID: 0}
    - target: {fileID: 4000011252882896, guid: 82af4827fee368e4c83d72a25f533a4e, type: 3}
      propertyPath: m_LocalRotation.y
      value: 0.9502451
      objectReference: {fileID: 0}
    - target: {fileID: 4000011252882896, guid: 82af4827fee368e4c83d72a25f533a4e, type: 3}
      propertyPath: m_LocalRotation.z
      value: -0.27100796
      objectReference: {fileID: 0}
    - target: {fileID: 4000011252882896, guid: 82af4827fee368e4c83d72a25f533a4e, type: 3}
      propertyPath: m_LocalRotation.w
      value: -0.14771822
      objectReference: {fileID: 0}
    - target: {fileID: 4000011252882896, guid: 82af4827fee368e4c83d72a25f533a4e, type: 3}
      propertyPath: m_LocalPosition.x
      value: 1.3687115
      objectReference: {fileID: 0}
    - target: {fileID: 4000011252882896, guid: 82af4827fee368e4c83d72a25f533a4e, type: 3}
      propertyPath: m_LocalPosition.y
      value: 3.357399
      objectReference: {fileID: 0}
    - target: {fileID: 4000011252882896, guid: 82af4827fee368e4c83d72a25f533a4e, type: 3}
      propertyPath: m_LocalPosition.z
      value: 3.366858
      objectReference: {fileID: 0}
    - target: {fileID: 108000010494217588, guid: 82af4827fee368e4c83d72a25f533a4e,
        type: 3}
      propertyPath: m_Intensity
      value: 0.58
      objectReference: {fileID: 0}
    m_RemovedComponents: []
  m_SourcePrefab: {fileID: 100100000, guid: 82af4827fee368e4c83d72a25f533a4e, type: 3}
--- !u!1001 &1077872843
PrefabInstance:
  m_ObjectHideFlags: 0
  serializedVersion: 2
  m_Modification:
    m_TransformParent: {fileID: 0}
    m_Modifications:
    - target: {fileID: 100000, guid: 2d99c4ba773b74442b65d2e9cb72bfcd, type: 3}
      propertyPath: m_Name
      value: Shaderball2
      objectReference: {fileID: 0}
    - target: {fileID: 400000, guid: 2d99c4ba773b74442b65d2e9cb72bfcd, type: 3}
      propertyPath: m_LocalPosition.x
      value: 0.32
      objectReference: {fileID: 0}
    - target: {fileID: 400000, guid: 2d99c4ba773b74442b65d2e9cb72bfcd, type: 3}
      propertyPath: m_LocalPosition.y
      value: -0
      objectReference: {fileID: 0}
    - target: {fileID: 400000, guid: 2d99c4ba773b74442b65d2e9cb72bfcd, type: 3}
      propertyPath: m_LocalPosition.z
      value: -3.37
      objectReference: {fileID: 0}
    - target: {fileID: 400000, guid: 2d99c4ba773b74442b65d2e9cb72bfcd, type: 3}
      propertyPath: m_LocalRotation.x
      value: 0.000000021855694
      objectReference: {fileID: 0}
    - target: {fileID: 400000, guid: 2d99c4ba773b74442b65d2e9cb72bfcd, type: 3}
      propertyPath: m_LocalRotation.y
      value: 0
      objectReference: {fileID: 0}
    - target: {fileID: 400000, guid: 2d99c4ba773b74442b65d2e9cb72bfcd, type: 3}
      propertyPath: m_LocalRotation.z
      value: -0
      objectReference: {fileID: 0}
    - target: {fileID: 400000, guid: 2d99c4ba773b74442b65d2e9cb72bfcd, type: 3}
      propertyPath: m_LocalRotation.w
      value: 1
      objectReference: {fileID: 0}
    - target: {fileID: 400000, guid: 2d99c4ba773b74442b65d2e9cb72bfcd, type: 3}
      propertyPath: m_RootOrder
      value: 1
      objectReference: {fileID: 0}
    - target: {fileID: 400000, guid: 2d99c4ba773b74442b65d2e9cb72bfcd, type: 3}
      propertyPath: m_LocalEulerAnglesHint.x
      value: 0
      objectReference: {fileID: 0}
    - target: {fileID: 400000, guid: 2d99c4ba773b74442b65d2e9cb72bfcd, type: 3}
      propertyPath: m_LocalEulerAnglesHint.y
      value: 0
      objectReference: {fileID: 0}
    - target: {fileID: 400000, guid: 2d99c4ba773b74442b65d2e9cb72bfcd, type: 3}
      propertyPath: m_LocalEulerAnglesHint.z
      value: 0
      objectReference: {fileID: 0}
    - target: {fileID: 2300000, guid: 2d99c4ba773b74442b65d2e9cb72bfcd, type: 3}
      propertyPath: m_Materials.Array.data[0]
      value: 
      objectReference: {fileID: 2100000, guid: a74e88492fa30e540a88a0a28e6dd93c, type: 2}
    - target: {fileID: 2300000, guid: 2d99c4ba773b74442b65d2e9cb72bfcd, type: 3}
      propertyPath: m_Materials.Array.data[1]
      value: 
      objectReference: {fileID: 2100000, guid: 19fb82522a20f194a84f1599bbe496c8, type: 2}
    - target: {fileID: 2300000, guid: 2d99c4ba773b74442b65d2e9cb72bfcd, type: 3}
      propertyPath: m_Materials.Array.data[2]
      value: 
      objectReference: {fileID: 2100000, guid: da2c233b59617744588b18235eda5f56, type: 2}
    m_RemovedComponents: []
  m_SourcePrefab: {fileID: 100100000, guid: 2d99c4ba773b74442b65d2e9cb72bfcd, type: 3}
