%YAML 1.1
%TAG !u! tag:unity3d.com,2011:
--- !u!21 &2100000
Material:
  serializedVersion: 6
  m_ObjectHideFlags: 0
  m_CorrespondingSourceObject: {fileID: 0}
  m_PrefabInstance: {fileID: 0}
  m_PrefabAsset: {fileID: 0}
  m_Name: DissolveIce
  m_Shader: {fileID: 4800000, guid: 9f64ff08c3be7204d80e4fd683c1f732, type: 3}
  m_ShaderKeywords: 
  m_LightmapFlags: 4
  m_EnableInstancingVariants: 0
  m_DoubleSidedGI: 0
  m_CustomRenderQueue: -1
  stringTagMap: {}
  disabledShaderPasses: []
  m_SavedProperties:
    serializedVersion: 3
    m_TexEnvs:
    - _Albedo:
        m_Texture: {fileID: 2800000, guid: 49a98e52b3d273a4481cca214cd7a1ff, type: 3}
        m_Scale: {x: 1, y: 1}
        m_Offset: {x: 0, y: 0}
    - _Blood:
        m_Texture: {fileID: 2800000, guid: fcd9a8bab4a5e9f489858eb8efcc1aef, type: 3}
        m_Scale: {x: 1, y: 1}
        m_Offset: {x: 0, y: 0}
    - _BurnRamp:
        m_Texture: {fileID: 2800000, guid: bf531fada755f864b810a0997c73e88e, type: 3}
        m_Scale: {x: 1, y: 1}
        m_Offset: {x: 0, y: 0}
    - _DisolveGuide:
        m_Texture: {fileID: 2800000, guid: 999fa7824910a6a4f8d33c1cb629a1d2, type: 3}
        m_Scale: {x: 2, y: 2}
        m_Offset: {x: 0, y: 0}
    - _IceRamp:
        m_Texture: {fileID: 2800000, guid: bf531fada755f864b810a0997c73e88e, type: 3}
        m_Scale: {x: 1, y: 1}
        m_Offset: {x: 0, y: 0}
    - _Normal:
        m_Texture: {fileID: 2800000, guid: dd14c9dd876a01c4ab2dd8e9d2b9c8ab, type: 3}
        m_Scale: {x: 1, y: 1}
        m_Offset: {x: 0, y: 0}
    - _texcoord:
        m_Texture: {fileID: 0}
        m_Scale: {x: 1, y: 1}
        m_Offset: {x: 0, y: 0}
    - _texcoord2:
        m_Texture: {fileID: 0}
        m_Scale: {x: 1, y: 1}
        m_Offset: {x: 0, y: 0}
    m_Floats:
    - _DissolveAmount: 0.7
    - _MaskClipValue: 0.5
    - __dirty: 0
    m_Colors:
    - _Bloo: {r: 0.2075472, g: 0, b: 0.02156335, a: 0}
    - _BloodTint: {r: 0.6320754, g: 0, b: 0.059489448, a: 0}
    - _Color1: {r: 0.2075472, g: 0, b: 0.02156335, a: 0}
    - _ColorTint: {r: 1, g: 1, b: 1, a: 0}
