%YAML 1.1
%TAG !u! tag:unity3d.com,2011:
--- !u!21 &2100000
Material:
  serializedVersion: 6
  m_ObjectHideFlags: 0
  m_PrefabParentObject: {fileID: 0}
  m_PrefabInternal: {fileID: 0}
  m_Name: LX_glow_2A_02_09
  m_Shader: {fileID: 4800000, guid: 7e88ecbcac7c40b48bf257ef9a367da1, type: 3}
  m_ShaderKeywords: 
  m_LightmapFlags: 5
  m_CustomRenderQueue: 3000
  stringTagMap: {}
  m_SavedProperties:
    serializedVersion: 2
    m_TexEnvs:
    - first:
        name: _Detail
      second:
        m_Texture: {fileID: 2800000, guid: 2bdeedd8d547e964bb0d3f4e23a18b86, type: 3}
        m_Scale: {x: 1, y: 1}
        m_Offset: {x: 0, y: 0}
    - first:
        name: _MainTex
      second:
        m_Texture: {fileID: 2800000, guid: 753f43195c9762e43bb3fa8ecfcc4b74, type: 3}
        m_Scale: {x: 1, y: 1}
        m_Offset: {x: 0, y: 0}
    m_Floats:
    - first:
        name: _BlendMode
      second: 1
    - first:
        name: _BrightGain
      second: 1
    - first:
        name: _Culling
      second: 0
    - first:
        name: _DstBlend
      second: 1
    - first:
        name: _InvFade
      second: 1
    - first:
        name: _Shininess
      second: 0.078125
    - first:
        name: _SrcBlend
      second: 5
    - first:
        name: _ZTest
      second: 4
    m_Colors:
    - first:
        name: _Color
      second: {r: 1, g: 0.7921569, b: 0.3529412, a: 0.47058824}
    - first:
        name: _SpecColor
      second: {r: 0.5, g: 0.5, b: 0.5, a: 1}
    - first:
        name: _TintColor
      second: {r: 1, g: 1, b: 1, a: 1}
