%YAML 1.1
%TAG !u! tag:unity3d.com,2011:
--- !u!21 &2100000
Material:
  serializedVersion: 6
  m_ObjectHideFlags: 0
  m_PrefabParentObject: {fileID: 0}
  m_PrefabInternal: {fileID: 0}
  m_Name: LX_Ring_C_01_A_Pei
  m_Shader: {fileID: 4800000, guid: 7e88ecbcac7c40b48bf257ef9a367da1, type: 3}
  m_ShaderKeywords: 
  m_LightmapFlags: 5
  m_CustomRenderQueue: -1
  stringTagMap: {}
  m_SavedProperties:
    serializedVersion: 2
    m_TexEnvs:
    - first:
        name: _MainTex
      second:
        m_Texture: {fileID: 2800000, guid: b23823ef6d427f845bb154240d08cda2, type: 3}
        m_Scale: {x: 1, y: 1}
        m_Offset: {x: 0, y: 0}
    m_Floats:
    - first:
        name: _BlendMode
      second: 1
    - first:
        name: _BrightGain
      second: 1
    - first:
        name: _Culling
      second: 0
    - first:
        name: _DstBlend
      second: 1
    - first:
        name: _SrcBlend
      second: 5
    - first:
        name: _ZTest
      second: 4
    m_Colors:
    - first:
        name: _Color
      second: {r: 1, g: 1, b: 1, a: 1}
