%YAML 1.1
%TAG !u! tag:unity3d.com,2011:
--- !u!21 &2100000
Material:
  serializedVersion: 6
  m_ObjectHideFlags: 0
  m_PrefabParentObject: {fileID: 0}
  m_PrefabInternal: {fileID: 0}
  m_Name: LX_water_A_02_01
  m_Shader: {fileID: 4800000, guid: 7e88ecbcac7c40b48bf257ef9a367da1, type: 3}
  m_ShaderKeywords: 
  m_LightmapFlags: 5
  m_CustomRenderQueue: 3010
  stringTagMap: {}
  m_SavedProperties:
    serializedVersion: 2
    m_TexEnvs:
      data:
        first:
          name: _MainTex
        second:
          m_Texture: {fileID: 2800000, guid: 3d7010a5c3dc03f47a69586508c2bc37, type: 3}
          m_Scale: {x: 1, y: 1}
          m_Offset: {x: 0, y: 0}
      data:
        first:
          name: _BumpMap
        second:
          m_Texture: {fileID: 0}
          m_Scale: {x: 1, y: 1}
          m_Offset: {x: 0, y: 0}
      data:
        first:
          name: _DetailNormalMap
        second:
          m_Texture: {fileID: 0}
          m_Scale: {x: 1, y: 1}
          m_Offset: {x: 0, y: 0}
      data:
        first:
          name: _Ramp
        second:
          m_Texture: {fileID: 0}
          m_Scale: {x: 1, y: 1}
          m_Offset: {x: 0, y: 0}
      data:
        first:
          name: _BlendTarget
        second:
          m_Texture: {fileID: 0}
          m_Scale: {x: 1, y: 1}
          m_Offset: {x: 0, y: 0}
      data:
        first:
          name: _CubeMap
        second:
          m_Texture: {fileID: 8900000, guid: 3584ad72f273a314da2354b45be3fa1d, type: 3}
          m_Scale: {x: 1, y: 1}
          m_Offset: {x: 0, y: 0}
      data:
        first:
          name: _ParallaxMap
        second:
          m_Texture: {fileID: 0}
          m_Scale: {x: 1, y: 1}
          m_Offset: {x: 0, y: 0}
      data:
        first:
          name: _OcclusionMap
        second:
          m_Texture: {fileID: 0}
          m_Scale: {x: 1, y: 1}
          m_Offset: {x: 0, y: 0}
      data:
        first:
          name: _EmissionMap
        second:
          m_Texture: {fileID: 0}
          m_Scale: {x: 1, y: 1}
          m_Offset: {x: 0, y: 0}
      data:
        first:
          name: _DetailMask
        second:
          m_Texture: {fileID: 0}
          m_Scale: {x: 1, y: 1}
          m_Offset: {x: 0, y: 0}
      data:
        first:
          name: _DetailAlbedoMap
        second:
          m_Texture: {fileID: 0}
          m_Scale: {x: 1, y: 1}
          m_Offset: {x: 0, y: 0}
      data:
        first:
          name: _MetallicGlossMap
        second:
          m_Texture: {fileID: 0}
          m_Scale: {x: 1, y: 1}
          m_Offset: {x: 0, y: 0}
      data:
        first:
          name: _dudvMap
        second:
          m_Texture: {fileID: 2800000, guid: 20bb6d2cdcd3a094aad766b8d529d843, type: 3}
          m_Scale: {x: 1, y: 1}
          m_Offset: {x: 0, y: 0}
      data:
        first:
          name: _DissolveSrc
        second:
          m_Texture: {fileID: 2800000, guid: 3d7010a5c3dc03f47a69586508c2bc37, type: 3}
          m_Scale: {x: 1, y: 1}
          m_Offset: {x: 0, y: 0}
    m_Floats:
      data:
        first:
          name: _SrcBlend
        second: 5
      data:
        first:
          name: _DstBlend
        second: 1
      data:
        first:
          name: _Cutoff
        second: 0.5
      data:
        first:
          name: _RimPower
        second: 2.5
      data:
        first:
          name: _Culling
        second: 0
      data:
        first:
          name: _BlendWeight
        second: 0
      data:
        first:
          name: _ZTest
        second: 4
      data:
        first:
          name: _BrightGain
        second: 1
      data:
        first:
          name: _BlendMode
        second: 1
      data:
        first:
          name: _CubeMapIntensity
        second: 0
      data:
        first:
          name: _ZWrite
        second: 1
      data:
        first:
          name: _Parallax
        second: 0.02
      data:
        first:
          name: _Glossiness
        second: 0.5
      data:
        first:
          name: _BumpScale
        second: 1
      data:
        first:
          name: _OcclusionStrength
        second: 1
      data:
        first:
          name: _DetailNormalMapScale
        second: 1
      data:
        first:
          name: _UVSec
        second: 0
      data:
        first:
          name: _Mode
        second: 0
      data:
        first:
          name: _Metallic
        second: 0
      data:
        first:
          name: _DistortSpeedU
        second: 145
      data:
        first:
          name: _DistortSpeedV
        second: -104
      data:
        first:
          name: _DistortLevel
        second: 0.035
      data:
        first:
          name: _EmissionGain
        second: 0.405
      data:
        first:
          name: _Amount
        second: 0.5
      data:
        first:
          name: _StartAmount
        second: 0.1
      data:
        first:
          name: _Illuminate
        second: 0.5
      data:
        first:
          name: _Tile
        second: 1
    m_Colors:
      data:
        first:
          name: _EmissionColor
        second: {r: 0, g: 0, b: 0, a: 1}
      data:
        first:
          name: _Color
        second: {r: 0.5147059, g: 1, b: 0.9397565, a: 1}
      data:
        first:
          name: _TintColor
        second: {r: 0.5, g: 0.5, b: 0.5, a: 0.5}
      data:
        first:
          name: _DissColor
        second: {r: 1, g: 1, b: 1, a: 1}
      data:
        first:
          name: _ColorAnimate
        second: {r: 1, g: 1, b: 1, a: 1}
