%YAML 1.1
%TAG !u! tag:unity3d.com,2011:
--- !u!21 &2100000
Material:
  serializedVersion: 6
  m_ObjectHideFlags: 0
  m_PrefabParentObject: {fileID: 0}
  m_PrefabInternal: {fileID: 0}
  m_Name: LX_WheelTrail_01_01_C
  m_Shader: {fileID: 4800000, guid: 53dc29eca9daa1f48a350e1f3a90580d, type: 3}
  m_ShaderKeywords: _ALPHABLEND_ON _EMISSION _LIGHTMAPPING_REALTIME _UVSEC_UV1
  m_LightmapFlags: 1
  m_CustomRenderQueue: -1
  stringTagMap: {}
  m_SavedProperties:
    serializedVersion: 2
    m_TexEnvs:
    - first:
        name: _BumpMap
      second:
        m_Texture: {fileID: 0}
        m_Scale: {x: 1, y: 1}
        m_Offset: {x: 0, y: 0}
    - first:
        name: _DetailAlbedoMap
      second:
        m_Texture: {fileID: 0}
        m_Scale: {x: 1, y: 1}
        m_Offset: {x: 0, y: 0}
    - first:
        name: _DetailMask
      second:
        m_Texture: {fileID: 0}
        m_Scale: {x: 1, y: 1}
        m_Offset: {x: 0, y: 0}
    - first:
        name: _DetailNormalMap
      second:
        m_Texture: {fileID: 0}
        m_Scale: {x: 1, y: 1}
        m_Offset: {x: 0, y: 0}
    - first:
        name: _EmissionMap
      second:
        m_Texture: {fileID: 0}
        m_Scale: {x: 1, y: 1}
        m_Offset: {x: 0, y: 0}
    - first:
        name: _GlowTex
      second:
        m_Texture: {fileID: 0}
        m_Scale: {x: 1, y: 1}
        m_Offset: {x: 0, y: 0}
    - first:
        name: _MainTex
      second:
        m_Texture: {fileID: 2800000, guid: b51e8a24c9c16694194f4bbb64de1c7e, type: 3}
        m_Scale: {x: 1, y: 1}
        m_Offset: {x: 0, y: 0}
    - first:
        name: _MetallicGlossMap
      second:
        m_Texture: {fileID: 0}
        m_Scale: {x: 1, y: 1}
        m_Offset: {x: 0, y: 0}
    - first:
        name: _Occlusion
      second:
        m_Texture: {fileID: 0}
        m_Scale: {x: 1, y: 1}
        m_Offset: {x: 0, y: 0}
    - first:
        name: _OcclusionMap
      second:
        m_Texture: {fileID: 0}
        m_Scale: {x: 1, y: 1}
        m_Offset: {x: 0, y: 0}
    - first:
        name: _ParallaxMap
      second:
        m_Texture: {fileID: 0}
        m_Scale: {x: 1, y: 1}
        m_Offset: {x: 0, y: 0}
    - first:
        name: _SpecGlossMap
      second:
        m_Texture: {fileID: 0}
        m_Scale: {x: 1, y: 1}
        m_Offset: {x: 0, y: 0}
    m_Floats:
    - first:
        name: _AlphaTestRef
      second: 0.5
    - first:
        name: _BlendMode
      second: 0
    - first:
        name: _BrightGain
      second: 1
    - first:
        name: _BumpScale
      second: 1
    - first:
        name: _Culling
      second: 2
    - first:
        name: _Cutoff
      second: 0.5
    - first:
        name: _DetailNormalMapScale
      second: 1
    - first:
        name: _DstBlend
      second: 10
    - first:
        name: _EmissionScaleUI
      second: 1
    - first:
        name: _GlossMapScale
      second: 1
    - first:
        name: _Glossiness
      second: 0
    - first:
        name: _GlossyReflections
      second: 1
    - first:
        name: _GlowIntensity
      second: 1
    - first:
        name: _Intensity
      second: 0.6
    - first:
        name: _InvFade
      second: 1
    - first:
        name: _Lightmapping
      second: 1
    - first:
        name: _Metallic
      second: 0
    - first:
        name: _Mode
      second: 2
    - first:
        name: _OcclusionStrength
      second: 1
    - first:
        name: _Parallax
      second: 0.02
    - first:
        name: _RimPower
      second: 2.5
    - first:
        name: _Shininess
      second: 0.7
    - first:
        name: _SmoothnessTextureChannel
      second: 0
    - first:
        name: _SpecularHighlights
      second: 1
    - first:
        name: _SrcBlend
      second: 5
    - first:
        name: _UVSec
      second: 0
    - first:
        name: _WavingFrequency
      second: 0.5
    - first:
        name: _WavingScale
      second: 0.5
    - first:
        name: _ZTest
      second: 4
    - first:
        name: _ZWrite
      second: 0
    - first:
        name: _lightBlend
      second: 0.6
    - first:
        name: _lightIntensity
      second: 1
    - first:
        name: _texEnhance
      second: 0
    m_Colors:
    - first:
        name: _Color
      second: {r: 0, g: 0, b: 0, a: 1}
    - first:
        name: _Emission
      second: {r: 0, g: 0, b: 0, a: 0}
    - first:
        name: _EmissionColor
      second: {r: 0, g: 0, b: 0, a: 1}
    - first:
        name: _EmissionColorUI
      second: {r: 0, g: 0, b: 0, a: 1}
    - first:
        name: _EmissionColorWithMapUI
      second: {r: 1, g: 1, b: 1, a: 1}
    - first:
        name: _SpecColor
      second: {r: 1, g: 1, b: 1, a: 0}
    - first:
        name: _SpecularColor
      second: {r: 0.2, g: 0.2, b: 0.2, a: 1}
